<?xml version="1.0" encoding="UTF-8"?>
<testng-results skipped="0" failed="0" ignored="0" total="1" passed="1">
  <reporter-output>
  </reporter-output>
  <suite name="Suite" duration-ms="9162" started-at="2020-12-27T20:53:11Z" finished-at="2020-12-27T20:53:20Z">
    <groups>
    </groups>
    <test name="Test" duration-ms="9162" started-at="2020-12-27T20:53:11Z" finished-at="2020-12-27T20:53:20Z">
      <class name="com.ram.pages.login">
        <test-method status="PASS" signature="test1()[pri:0, instance:com.ram.pages.login@61a485d2]" name="test1" duration-ms="9144" started-at="2020-12-27T20:53:11Z" finished-at="2020-12-27T20:53:20Z">
          <reporter-output>
          </reporter-output>
        </test-method> <!-- test1 -->
      </class> <!-- com.ram.pages.login -->
    </test> <!-- Test -->
  </suite> <!-- Suite -->
</testng-results>
